{
  "file_generated_by": "FlutterFire CLI",
  "purpose": "FirebaseAppID & ProjectID for this Firebase app in this directory",
  "GOOGLE_APP_ID": "1:797682795575:ios:492aa70f955ef090582bb2",
  "FIREBASE_PROJECT_ID": "task-20e7d",
  "GCM_SENDER_ID": "797682795575"
}